{
  "name": "fsm",
  "keywords": "finite state machine, state, event, transition",
  "description": "A header-only finite-state machine. Implemented as a C++ template class for maximum flexibility.",
  "repository": {
    "type": "git",
    "url": "https://gitlab.com/iot-loony-bin/fsm.git"
  },
  "authors": {
    "name": "IoT loony bin",
    "url": "https://gitlab.com/iot-loony-bin"
  },
  "version": "1.2.0",
  "downloadUrl": "https://gitlab.com/iot-loony-bin/fsm/-/archive/master/fsm-master.zip",
  "license": "GPL-2.0-only",
  "platforms": "*",
  "frameworks": "*",
  "export": {
    "include": [
      "fsm.hpp",
      "fsm.h"
    ]
  },
  "build": {
    "libArchive": false,
    "libLDFMode": "off",
    "includeDir": "."
  }
}